﻿<ValueTable xmlns="http://v8.1c.ru/8.1/data/core" xmlns:xs="http://www.w3.org/2001/XMLSchema" xmlns:xsi="http://www.w3.org/2001/XMLSchema-instance" xsi:type="ValueTable">
	<column>
		<Name xsi:type="xs:string">НомерСтроки</Name>
		<ValueType>
			<Type>xs:decimal</Type>
			<NumberQualifiers>
				<Digits>5</Digits>
				<FractionDigits>0</FractionDigits>
				<AllowedSign>Nonnegative</AllowedSign>
			</NumberQualifiers>
		</ValueType>
		<Width xsi:type="xs:decimal">20</Width>
	</column>
	<column>
		<Name xsi:type="xs:string">Код</Name>
		<ValueType>
			<Type>xs:string</Type>
			<StringQualifiers>
				<Length>2</Length>
				<AllowedLength>Variable</AllowedLength>
			</StringQualifiers>
		</ValueType>
		<Width xsi:type="xs:decimal">20</Width>
	</column>
	<column>
		<Name xsi:type="xs:string">Наименование</Name>
		<ValueType>
			<Type>xs:string</Type>
			<StringQualifiers>
				<Length>150</Length>
				<AllowedLength>Variable</AllowedLength>
			</StringQualifiers>
		</ValueType>
		<Width xsi:type="xs:decimal">20</Width>
	</column>
	<column>
		<Name xsi:type="xs:string">КодТНВЭД</Name>
		<ValueType>
			<Type>xs:string</Type>
			<StringQualifiers>
				<Length>10</Length>
				<AllowedLength>Variable</AllowedLength>
			</StringQualifiers>
		</ValueType>
		<Width xsi:type="xs:decimal">20</Width>
	</column>
	<column>
		<Name xsi:type="xs:string">ИсходныйНомерСтроки</Name>
		<ValueType>
			<Type>xs:decimal</Type>
			<NumberQualifiers>
				<Digits>0</Digits>
				<FractionDigits>0</FractionDigits>
				<AllowedSign>Any</AllowedSign>
			</NumberQualifiers>
		</ValueType>
		<Width xsi:type="xs:decimal">20</Width>
	</column>
	<row>
		<Value>1</Value>
		<Value>1</Value>
		<Value>ондатра</Value>
		<Value>4303109080</Value>
		<Value>0</Value>
	</row>
	<row>
		<Value>2</Value>
		<Value>2</Value>
		<Value>шкура молодого теленка до 3-х месяцев (опойка)</Value>
		<Value>4303109080</Value>
		<Value>0</Value>
	</row>
	<row>
		<Value>3</Value>
		<Value>3</Value>
		<Value>соболь</Value>
		<Value>4303109080</Value>
		<Value>0</Value>
	</row>
	<row>
		<Value>4</Value>
		<Value>4</Value>
		<Value>шиншила</Value>
		<Value>4303109080</Value>
		<Value>0</Value>
	</row>
	<row>
		<Value>5</Value>
		<Value>5</Value>
		<Value>бобр, бобер</Value>
		<Value>4303109080</Value>
		<Value>0</Value>
	</row>
	<row>
		<Value>6</Value>
		<Value>6</Value>
		<Value>рысь</Value>
		<Value>4303109080</Value>
		<Value>0</Value>
	</row>
	<row>
		<Value>7</Value>
		<Value>7</Value>
		<Value>козлик, козел, козленок</Value>
		<Value>4303109080</Value>
		<Value>0</Value>
	</row>
	<row>
		<Value>8</Value>
		<Value>8</Value>
		<Value>коза</Value>
		<Value>4303109080</Value>
		<Value>0</Value>
	</row>
	<row>
		<Value>9</Value>
		<Value>9</Value>
		<Value>морской котик</Value>
		<Value>4303109080</Value>
		<Value>0</Value>
	</row>
	<row>
		<Value>10</Value>
		<Value>10</Value>
		<Value>кенгуру</Value>
		<Value>4303109080</Value>
		<Value>0</Value>
	</row>
	<row>
		<Value>11</Value>
		<Value>11</Value>
		<Value>олень</Value>
		<Value>4303109080</Value>
		<Value>0</Value>
	</row>
	<row>
		<Value>12</Value>
		<Value>12</Value>
		<Value>овчина</Value>
		<Value>4303109080</Value>
		<Value>0</Value>
	</row>
	<row>
		<Value>13</Value>
		<Value>13</Value>
		<Value>лисица</Value>
		<Value>4303109080</Value>
		<Value>0</Value>
	</row>
	<row>
		<Value>14</Value>
		<Value>14</Value>
		<Value>хорек</Value>
		<Value>4303109080</Value>
		<Value>0</Value>
	</row>
	<row>
		<Value>15</Value>
		<Value>15</Value>
		<Value>овца</Value>
		<Value>4303109080</Value>
		<Value>0</Value>
	</row>
	<row>
		<Value>16</Value>
		<Value>16</Value>
		<Value>ласка</Value>
		<Value>4303109080</Value>
		<Value>0</Value>
	</row>
	<row>
		<Value>17</Value>
		<Value>17</Value>
		<Value>лама</Value>
		<Value>4303109080</Value>
		<Value>0</Value>
	</row>
	<row>
		<Value>18</Value>
		<Value>18</Value>
		<Value>койот</Value>
		<Value>4303109080</Value>
		<Value>0</Value>
	</row>
	<row>
		<Value>19</Value>
		<Value>19</Value>
		<Value>скунс</Value>
		<Value>4303109080</Value>
		<Value>0</Value>
	</row>
	<row>
		<Value>20</Value>
		<Value>20</Value>
		<Value>куница</Value>
		<Value>4303109080</Value>
		<Value>0</Value>
	</row>
	<row>
		<Value>21</Value>
		<Value>21</Value>
		<Value>волк</Value>
		<Value>4303109080</Value>
		<Value>0</Value>
	</row>
	<row>
		<Value>22</Value>
		<Value>22</Value>
		<Value>сурок</Value>
		<Value>4303109080</Value>
		<Value>0</Value>
	</row>
	<row>
		<Value>23</Value>
		<Value>23</Value>
		<Value>орилаг (кролик)</Value>
		<Value>4303109080</Value>
		<Value>0</Value>
	</row>
	<row>
		<Value>24</Value>
		<Value>24</Value>
		<Value>белка</Value>
		<Value>4303109080</Value>
		<Value>0</Value>
	</row>
	<row>
		<Value>25</Value>
		<Value>25</Value>
		<Value>ягненок</Value>
		<Value>4303109080</Value>
		<Value>0</Value>
	</row>
	<row>
		<Value>26</Value>
		<Value>26</Value>
		<Value>лиса</Value>
		<Value>4303109080</Value>
		<Value>0</Value>
	</row>
	<row>
		<Value>27</Value>
		<Value>27</Value>
		<Value>мех пекана</Value>
		<Value>4303109080</Value>
		<Value>0</Value>
	</row>
	<row>
		<Value>28</Value>
		<Value>28</Value>
		<Value>бычья шкура</Value>
		<Value>4303109080</Value>
		<Value>0</Value>
	</row>
	<row>
		<Value>29</Value>
		<Value>29</Value>
		<Value>енотовидная собака</Value>
		<Value>4303109080</Value>
		<Value>0</Value>
	</row>
	<row>
		<Value>30</Value>
		<Value>30</Value>
		<Value>шкура коровы</Value>
		<Value>4303109080</Value>
		<Value>0</Value>
	</row>
	<row>
		<Value>31</Value>
		<Value>31</Value>
		<Value>мех овечий</Value>
		<Value>4303109080</Value>
		<Value>0</Value>
	</row>
	<row>
		<Value>32</Value>
		<Value>32</Value>
		<Value>каракуль</Value>
		<Value>4303109080</Value>
		<Value>0</Value>
	</row>
	<row>
		<Value>33</Value>
		<Value>33</Value>
		<Value>опоссум</Value>
		<Value>4303109080</Value>
		<Value>0</Value>
	</row>
	<row>
		<Value>34</Value>
		<Value>34</Value>
		<Value>альпака</Value>
		<Value>4303109080</Value>
		<Value>0</Value>
	</row>
	<row>
		<Value>35</Value>
		<Value>35</Value>
		<Value>оцелот</Value>
		<Value>4303109080</Value>
		<Value>0</Value>
	</row>
	<row>
		<Value>36</Value>
		<Value>36</Value>
		<Value>хомяк</Value>
		<Value>4303109080</Value>
		<Value>0</Value>
	</row>
	<row>
		<Value>37</Value>
		<Value>37</Value>
		<Value>нерпа</Value>
		<Value>4303109080</Value>
		<Value>0</Value>
	</row>
	<row>
		<Value>38</Value>
		<Value>38</Value>
		<Value>мех пони</Value>
		<Value>4303109080</Value>
		<Value>0</Value>
	</row>
	<row>
		<Value>39</Value>
		<Value>39</Value>
		<Value>мех кошки домашней</Value>
		<Value>4303109080</Value>
		<Value>0</Value>
	</row>
	<row>
		<Value>40</Value>
		<Value>40</Value>
		<Value>Мех животных, подпадающих под действие Конвенции о международной торговле видами дикой фауны и флоры, находящимися под угрозой исчезновения (СИТЕС)"</Value>
		<Value>4303109080</Value>
		<Value>0</Value>
	</row>
</ValueTable>